<svg width="3000" height="1000" xmlns="http://www.w3.org/2000/svg">
 <style type="text/css">.st0{fill:#3B579D;}
	.st1{fill:#FFFFFF;}</style>

 <title/>
 <g>
  <title>background</title>
  <rect fill="none" id="canvas_background" height="1002" width="3002" y="-1" x="-1"/>
 </g>
 <g>
  <title>Layer 1</title>
  <rect x="0" y="0" stroke="null" id="svg_1" width="3000.75388" height="1000" class="st0"/>
  <path id="f" d="m1565.75,1000l0,-387.2l130,0l19.5,-150.9l-149.5,0l0,-96.4c0,-43.7 12.1,-73.5 74.8,-73.5l79.9,0l0,-135c-13.8,-1.8 -61.3,-5.9 -116.5,-5.9c-115.2,-0.1 -194.1,70.3 -194.1,199.4l0,111.3l-130.3,0l0,150.9l130.3,0l0,387.3l155.9,0z" class="st1"/>
 </g>
</svg>