{
	"noticias": [{
		"id": "2987",
		"str_titulo": "INTEGRANTES DE TALLER LABORAL ESPERANZA DE MUJER RECIBIERON DOS TELARES DE MANOS DEL ALCALDE BERTIN",
		"str_archivohead": "2987_croppedImg_301346567.jpeg",
		"str_thumbs": null,
		"cod_extension": "0100020004",
		"str_observacion": "Una grata conversaci\u00f3n con las integrantes del taller laboral Esperanza de Mujer sostuvo el alcalde Jaime Bertin en su visita a dicho grupo para hacer entrega de dos telares hechos con madera reciclada por el propio municipio para que dicho taller desarrolle su labor.\r\n\r\nCon los implementos las vecinas que forman parte del taller podr\u00e1n continuar el trabajo que las caracteriza, que consiste en elaborar diversas prendas de lana que luego venden y exponen en diversas muestras de artesan\u00eda local.\r\n\r\nEl alcalde les mostr\u00f3 su entusiasmo por la labor que realizan y destac\u00f3 que cada vez m\u00e1s el p\u00fablico est\u00e1 volviendo a valorar este trabajo hecho por trabajadoras manos de artesanas  osorninas.",
		"fec_publicacion": "2017-12-15",
		"fec_inicio": null,
		"hor_inicio": null,
		"fec_fin": null,
		"hor_fin": null
	}, {
		"id": "2988",
		"str_titulo": "MUNICIPIO ENTREG\u00d3 NUEVO LOTE DE CONTENEDORES DOMICILIARIOS DE BASURA A JUNTAS DE VECINOS",
		"str_archivohead": "2988_croppedImg_1153915584.jpeg",
		"str_thumbs": null,
		"cod_extension": "0100020004",
		"str_observacion": "Conformes y muy contentos se mostraron los miembros de las Juntas de Vecinos Santa Rosa de Lima y Poblaci\u00f3n Angulo al recibir los contenedores domiciliarios de basura que la tarde de este jueves hizo el alcalde Jaime Bertin a nombre del municipio.\r\n\r\nSe trat\u00f3 de un paquete de 13 unidades para la JJ.VV. Santa Rosa de Lima y de 98 para la JJ.VV. Poblaci\u00f3n Angulo, cuya entrega ya estaba comprometida con anticipaci\u00f3n por parte del jefe comunal.\r\n\r\n\"Como ven, dijimos que traer\u00edamos los contenedores y aqu\u00ed est\u00e1n, vecinos. Con \u00e9sto hacemos un  aporte concreto para que entre todos podamos tener limpia la ciudad. Cuando nos preguntan c\u00f3mo hemos hecho para que Osorno est\u00e9 as\u00ed de limpio y ordenado, siempre comento que \u00e9stos contenedores son parte fundamental. As\u00ed evitamos los olores y que las bolsas de basura se rompan en la calle\" dijo el alcalde Bertin.\r\n\r\nEn el caso de Poblaci\u00f3n Angulo, su presidente, Marcos Barrientos, dijo que \"en noviembre tuvimos una reuni\u00f3n aqu\u00ed mismo en la sede con el Alcalde donde pedimos los contenedores y apenas unas semanas despu\u00e9s los tenemos aqu\u00ed. Nunca pens\u00e9 que iban a estar tan r\u00e1pido. Gracias, se\u00f1or Alcalde, porque as\u00ed es como avanza nuestra ciudad. Donde uno mire hoy d\u00eda ve un Osorno distinto\".\r\n\r\nEsta entrega busca crear y fomentar una comunidad m\u00e1s comprometida con el medio ambiente y una ciudad m\u00e1s sustentable es el objetivo principal de esta ayuda concreta a los vecinos, consistente en la entrega de estos diferentes lotes de contenedores en diferentes sectores urbanos y rurales de la comuna de Osorno.\r\n\r\nEl plan piloto permitir\u00e1 generar una mejor calidad de vida tanto familiar como comunal, haciendo a los mismos vecinos responsables y consientes de cuidar el medio ambiente y la limpieza y belleza de la comuna.",
		"fec_publicacion": "2017-12-15",
		"fec_inicio": null,
		"hor_inicio": null,
		"fec_fin": null,
		"hor_fin": null
	}, {
		"id": "2989",
		"str_titulo": "ALCALDE BERTIN INFORM\u00d3 QUE, A CONTAR DEL 1 DE ENERO, SE SUSPENDER\u00c1N TEMPORALMENTE LAS \u201cV\u00cdAS REVERSIBLES\u201d EN AVENIDAS REP\u00daBLICA, Y MACKENNA",
		"str_archivohead": "2989_croppedImg_2003969432.jpeg",
		"str_thumbs": null,
		"cod_extension": "0100020004",
		"str_observacion": "El alcalde Jaime Bertin inform\u00f3 que, a contar del 1 de enero de 2018, y durante enero, y febrero, se suspender\u00e1n temporalmente las \u201cV\u00edas Reversibles\u201d en avenidas Rep\u00fablica, y Mackenna, hasta llegar a Lynch; \u201cuna medida que implementamos, junto a Carabineros, desde el mes de abril, en adelante, con el objetivo de reducir la congesti\u00f3n vehicular que se generaba, especialmente en horas punta, durante la ma\u00f1ana, cuando ingresan los alumnos a sus respectivos establecimientos escolares\u201d, indic\u00f3 la autoridad.\r\n\r\nEl jefe edilicio se reuni\u00f3 con el Prefecto de Carabineros, coronel Leonardo Castillo; y representantes del Departamento de Tr\u00e1nsito de la municipalidad, y la Seremi de Transportes, con quienes analiz\u00f3, de forma positiva, el impacto que tuvo esta medida, que se lleva a cabo entre las 07:00, y 08:00 horas, \u201cya que, seg\u00fan datos entregados por la polic\u00eda uniformada, los tiempos de traslado hacia el centro bajaron considerablemente, pasando, por ejemplo, de una hora a s\u00f3lo 7 minutos, en el desplazamiento vehicular en Rep\u00fablica, entre Victoria, y el Puente San Pedro, y lo que, al final, se tradujo en una demora menor en el trayecto total de las personas, hacia sus destinos\u201d.\r\n\r\nBertin agreg\u00f3 que \u201cla continuidad de estas \u201cV\u00edas Reversibles\u201d, a partir de marzo del pr\u00f3ximo a\u00f1o, se evaluar\u00e1, en funci\u00f3n de los trabajos que se est\u00e9n realizando, en dicha fecha, en el marco del proyecto de mejoramiento de avenida Rep\u00fablica; una informaci\u00f3n que, obviamente, daremos a conocer, en su momento, a toda la comunidad\u201d.\r\n\r\nPor su parte, el Coronel Leonardo Castillo indic\u00f3 que \u201ccomo Carabineros, dispusimos de todo el recurso humano necesario para que esta medida se ejecutara de la mejor forma posible, por lo que agradecemos a la comunidad osornina, por su apoyo en el \u00e9xito que ha tenido esta iniciativa\u201d.",
		"fec_publicacion": "2017-12-15",
		"fec_inicio": null,
		"hor_inicio": null,
		"fec_fin": null,
		"hor_fin": null
	}, {
		"id": "2990",
		"str_titulo": "AUDIENCIA CON CLUB DE ADULTO MAYOR \"LAS SOBERANAS\"",
		"str_archivohead": "2990_croppedImg_1167043849.jpeg",
		"str_thumbs": null,
		"cod_extension": "0100020004",
		"str_observacion": "Las dirigentas del Club de Adulto Mayor \"Las Soberanas\" se reunieron con el alcalde de la comuna, para plantearle diferentes temas de inter\u00e9s.\r\n\r\nDentro de aquellos destaca ver la factiblidad de contar con un aporte para vacaciones, lo que, dijo el edil, ser\u00e1 evaluado para definir si es posible de apoyar.",
		"fec_publicacion": "2017-12-15",
		"fec_inicio": null,
		"hor_inicio": null,
		"fec_fin": null,
		"hor_fin": null
	}, {
		"id": "2991",
		"str_titulo": "MUNICIPIO LANZ\u00d3 POSTULACIONES PARA LA BECA DEPORTIVA 2018",
		"str_archivohead": "2991_croppedImg_614023608.jpeg",
		"str_thumbs": null,
		"cod_extension": "0100020004",
		"str_observacion": "Con una conferencia de prensa encabezada por el alcalde Jaime Bertin, la Ilustre Municipalidad de Osorno lanz\u00f3 las postulaciones para la Beca Deportiva Municipal 2018, que consiste en un aporte de 1 mill\u00f3n de pesos para que los deportistas menores de 25 a\u00f1os que tengan dificultades econ\u00f3micas para competir en disciplinas con alto rendimiento puedan hacerlo.\r\n\r\n\"\u00c9sta es una ayuda que hacemos como municipio porque sabemos que muchos deportistas y sus familias deben hacer grandes esfuerzos econ\u00f3micos para competir o comprar implementaci\u00f3n deportiva\" dijo el alcalde Jaime Bertin.\r\n\r\nEn la ceremonia tambi\u00e9n estuvo presente la joven atleta local Isabel Angulo, quien fue acreedora de una de las becas que utiliz\u00f3 este a\u00f1o. \"Quiero agradecer p\u00fablicamente al alcalde Bertin por esta ayuda, porque gracias a la beca pude comprar mis zapatillas, que son profesionales, y los clavos. Fue de mucha ayuda dijo la joven. \r\n\r\nLas postulaciones se inician hoy 15 de diciembre del 2017 hasta el d\u00eda 15 de Enero del 2018, plazo que vence impostergablemente a las 13:30 horas del d\u00eda se\u00f1alado. El lugar de presentaci\u00f3n de los antecedentes ser\u00e1 la Oficina de Partes del Municipio.\r\n\r\n",
		"fec_publicacion": "2017-12-15",
		"fec_inicio": null,
		"hor_inicio": null,
		"fec_fin": null,
		"hor_fin": null
	}, {
		"id": "2980",
		"str_titulo": "VECINOS DE POBLACI\u00d3N LOS ARRAYANES, Y VILLA DORADA, RECIBIERON COMPOSTERAS DE RECICLAJE DE RESIDUOS ORG\u00c1NICOS",
		"str_archivohead": "2980_croppedImg_1582782601.jpeg",
		"str_thumbs": null,
		"cod_extension": "0100020004",
		"str_observacion": "El municipio de Osorno hizo entrega a vecinos de poblaci\u00f3n Los Arrayanes, y Villa Dorada, de composteras de reciclaje de residuos org\u00e1nicos, en una experiencia piloto que realiza la presente gesti\u00f3n comunal, en el sector urbano de la ciudad.\r\n\r\nGracias a este implemento, las familias beneficiadas podr\u00e1n depositar, por ejemplo, restos de frutas, verduras, c\u00e1scaras de huevo molido, cajas de huevo, flores, hojas, plantas verdes, y restos de pasto; \u201clo cual contribuir\u00e1n a cuidar el medio ambiente, evitando eliminar estos desechos, de forma directa\u201d, indic\u00f3 el alcalde Jaime Bertin.\r\n\r\nEsta iniciativa ya se ha efectuado previamente en el sector rural, donde ha dado positivos resultados, ya que los beneficiados reutilizan el material acopiado en la sus composteras como fertilizante, de tipo natural.",
		"fec_publicacion": "2017-12-14",
		"fec_inicio": null,
		"hor_inicio": null,
		"fec_fin": null,
		"hor_fin": null
	}, {
		"id": "2981",
		"str_titulo": "CON RECONOCIMIENTO A ESTUDIANTES DESTACADOS EN ASISTENCIA, RENDIMIENTO, Y ESFUERZO, PREUNIVERSITARIO MUNICIPAL FINALIZ\u00d3 A\u00d1O ACAD\u00c9MICO 2017",
		"str_archivohead": "2981_croppedImg_1540284344.jpeg",
		"str_thumbs": null,
		"cod_extension": "0100020004",
		"str_observacion": "Con el reconocimiento a los alumnos destacados en Asistencia, Rendimiento, y Esfuerzo, y Compromiso, se realiz\u00f3 el cierre del a\u00f1o acad\u00e9mico del Preuniversitario Municipal, que durante este 2017 reforz\u00f3 los contenidos acad\u00e9micos de los estudiantes de liceos de la comuna, para que tengan un buen rendimiento en la Prueba de Selecci\u00f3n Universitaria (PSU), la que rindieron semanas atr\u00e1s.\r\n \r\nEsta ceremonia se realiz\u00f3 en la Biblioteca del Liceo Eleuterio Ram\u00edrez, donde el alcalde Jaime Bertin record\u00f3 que \u201cesta iniciativa nace el a\u00f1o 2015, como parte del compromiso de nuestra gesti\u00f3n municipal, de aportar a la equidad en la educaci\u00f3n, con hechos concretos. Durante este a\u00f1o, fueron 300 j\u00f3venes, de tercero y cuarto medio, los que acudieron a este Preuniversitario, donde profundizaron los contenidos en las asignaturas de Lenguaje y Comunicaci\u00f3n, Matem\u00e1tica, Biolog\u00eda, F\u00edsica, Qu\u00edmica e Historia y Ciencias Sociales\u201d.",
		"fec_publicacion": "2017-12-14",
		"fec_inicio": null,
		"hor_inicio": null,
		"fec_fin": null,
		"hor_fin": null
	}, {
		"id": "2982",
		"str_titulo": "MUNICIPIO APOYAR\u00c1 A CLUB DEPORTIVO RENACER, DE TACAM\u00d3, PARA CONSTRUIR CAMARINES, Y SERVICIOS HIGI\u00c9NICOS",
		"str_archivohead": "2982_croppedImg_1662968186.jpeg",
		"str_thumbs": null,
		"cod_extension": "0100020004",
		"str_observacion": "Un aporte financiero entregar\u00e1 el municipio local al Club Deportivo Renacer, de Tacam\u00f3, para que cumplan su anhelo de contar con sus propios camarines, y servicios higi\u00e9nicos.\r\n\r\nAs\u00ed lo inform\u00f3 el alcalde Jaime Bertin, tras reunirse, en dicho sector, con los dirigentes de dicha organizaci\u00f3n, que agradecieron a la autoridad el apoyo que se les brindar\u00e1 para concretar este proyecto, que ser\u00e1 ejecutado por ellos mismos.",
		"fec_publicacion": "2017-12-14",
		"fec_inicio": null,
		"hor_inicio": null,
		"fec_fin": null,
		"hor_fin": null
	}, {
		"id": "2983",
		"str_titulo": "AUDIENCIA CON CLUB ADULTO MAYOR KOLBE ALTO",
		"str_archivohead": "2983_croppedImg_1476382169.jpeg",
		"str_thumbs": null,
		"cod_extension": "0100020004",
		"str_observacion": "El alcalde Jaime Bertin se reuni\u00f3 con la directiva del Club de Adulto Mayor de poblaci\u00f3n Kolbe Alto, con la cual trat\u00f3 diferentes temas de inter\u00e9s.\r\n\r\nDentro de \u00e9stos destaca la evaluaci\u00f3n municipal de un aporte financiero para actividades de dicha entidad, adem\u00e1s del avance del proyecto de construcci\u00f3n de su sede social, inform\u00e1ndoles el alcalde de Osorno que aquello comenzar\u00e1 a ejecutarse en el corto plazo.",
		"fec_publicacion": "2017-12-14",
		"fec_inicio": null,
		"hor_inicio": null,
		"fec_fin": null,
		"hor_fin": null
	}, {
		"id": "2984",
		"str_titulo": "COMIT\u00c9 DE ADELANTO TROCOMO SE REUNI\u00d3 CON ALCALDE DE LA CIUDAD",
		"str_archivohead": "2984_croppedImg_1281413712.jpeg",
		"str_thumbs": null,
		"cod_extension": "0100020004",
		"str_observacion": "El Comit\u00e9 de Adelanto Trocomo plante\u00f3 al edil de la comuna la posibilidad de contar con apoyo municipal para financiar, en parte, lo que le corresponde a ellos, el proyecto de electrificaci\u00f3n del sector donde residen.\r\n\r\nComo respuesta, el alcalde de Osorno se\u00f1al\u00f3 que aquello ser\u00e1 evaluado mediante informes sociales, a cada uno de los socios de la entidad, de modo, as\u00ed, de focalizar un eventual aporte, en las personas que m\u00e1s lo requieran.",
		"fec_publicacion": "2017-12-14",
		"fec_inicio": null,
		"hor_inicio": null,
		"fec_fin": null,
		"hor_fin": null
	}]
}