{
  "today":[
    {
      "subject": "Lanzamiento Festival de la Carne 2018",
      "location": "Pista Olímpica",
      "date": {
        "day": "30",
        "month": "11",
        "month_name": "NOV",
        "time": "11:00 am",
        "full": "30/11 - 11:00 am"
      }
    },
    {
      "subject": "Reunión Gabinete",
      "location": "123 Carrera",
      "date": {
        "day": "30",
        "month": "11",
        "month_name": "NOV",
        "time": "1:00 pm",
        "full": "30/11 - 1:00 pm"
      }
    },
    {
      "subject": "Reunión Gabinete",
      "location": "Calle Lorem ipsum 123",
      "date": {
        "day": "30",
        "month": "11",
        "month_name": "NOV",
        "time": "2:30 pm",
        "full": "30/11 - 2:30 pm"
      }
    },
    {
      "subject": "Reunión Gabinete",
      "location": "Calle Lorem ipsum 123",
      "date": {
        "day": "30",
        "month": "11",
        "month_name": "NOV",
        "time": "5:00 pm",
        "full": "30/11 - 5:00 pm"
      }
    },
    {
      "subject": "Reunión Gabinete",
      "location": "Calle Lorem ipsum 123",
      "date": {
        "day": "30",
        "month": "11",
        "month_name": "NOV",
        "time": "8:00 pm",
        "full": "30/11 - 8:00 pm"
      }
    }
  ],
  "upcoming":[
    {
      "subject": "Reunión Gabinete",
      "location": "Calle Lorem ipsum 123",
      "date": {
        "day": "01",
        "month": "12",
        "month_name": "DEC",
        "time": "7:00 pm",
        "full": "01/12 - 7:00 pm"
      }
    },
    {
      "subject": "Reunión Gabinete",
      "location": "Calle Lorem ipsum 123",
      "date": {
        "day": "02",
        "month": "12",
        "month_name": "DEC",
        "time": "12:30 pm",
        "full": "02/12 - 12:30 pm"
      }
    },
    {
      "subject": "Reunión Gabinete Tour",
      "location": "Calle Lorem ipsum 123",
      "date": {
        "day": "04",
        "month": "12",
        "month_name": "DEC",
        "time": "6:00 pm",
        "full": "04/12 - 6:00 pm"
      }
    },
    {
      "subject": "Reunión Gabinete",
      "location": "Calle Lorem ipsum 123",
      "date": {
        "day": "15",
        "month": "12",
        "month_name": "DEC",
        "time": "3:00 pm",
        "full": "15/12 - 3:00 pm"
      }
    },
    {
      "subject": "Reunión Gabinete",
      "location": "Calle Lorem ipsum 123",
      "date": {
        "day": "24",
        "month": "12",
        "month_name": "DEC",
        "time": "1:00 pm",
        "full": "24/12 - 1:00 pm"
      }
    }
  ]
}
